digraph inter{
    a[label = "The interviewee joins the meeting at the scheduled time"]
    b[label = "Video and working environment are set up"]
    c[label = "The interviewee is questioned by the interviewer"]
    d[label = "The whiteboard is used for discussions and explanations"]
    a -> b;
    b -> c;
    c -> d;
}
